{
  "type": "service_account",
  "project_id": "sacred-entry-351920",
  "private_key_id": "9c22bd771b3e71bd04a3b17868cd5b9c7bfee543",
  "private_key": "-----BEGIN PRIVATE KEY-----\nMIIEvQIBADANBgkqhkiG9w0BAQEFAASCBKcwggSjAgEAAoIBAQCHCUoFHg3PDtwW\nzL7Gytp+KHP9gdFoDJROmyhy6+z4El1+pzi0wEy22qXXL5MxGpzef++IjIK3oJ4h\nhNsWB6VvXaL88SzdW4xGvXjfM0n1SNe3JYfpKqromtHrygFkMZc944xrYcSA/Dor\nQMWZ5ujZ1Xe2OQO+kXfWq2vi3z8a0zKh74vfR7qH4L2PqFm5wRCzjkqlUXdnQ77B\n3H2/HWmQ1CAjD9cAvQIJTWeLipjNDLvy3etsKljybNf6yEfRwHp1ZJ5z5M8HLWM1\nazNnpryeVB51RByJjJYnIQunH02l5VIpP/ZhtFxljZTfBjN4DziloQtm3+tw3EW8\n/EG7HIddAgMBAAECggEAIIJGfSPmnCYOKzkAZrhYUI3pmqrBoKSCocftvXj51CEL\nvB2C49T1wwGxcjQkYepvwIsZPgzhvVZgK16iJdQSalSnE/D15ZaQF0mvC0D8OZ5f\nPFq/NQ2OFrCLABJiMl5T9FTPLdzcI1dVo6sUxz/VZ/fhuY9RTPQVXytmrjgjp4++\nNxny5ZqPggpAJjLvrYNtNJOQWzMcBjkhAKCIoMril3ysBADqjpsVYYISBxj0XXlr\nTmnW4Jm3iE7ElY/VkalFA5jaZ3oZrvfasDOAz44SjJGtDbpAwDGH7mLq8oiIty/0\nnpx1//VR6CT2ir4jbOplv7q88daf9+S+pUBmwXSO6wKBgQC699kerjkP9gXX+NNW\n6Bv2/u9mO2jaTwxiabSfaqUkBvh86ms/PZpTnB1ifJdjvT7lJej77wIpVINbdcF3\nys2Qn3J84Y2DSg6zjrg7QPThTqUN4kUD+Bx5sEiTsq15Pek88TqwFerHolHVNVD2\n94z4YfmDIz6i1rkw8AvIv2sb6wKBgQC45NzApbhmn42tCy03MCAHyMbTGtNQWZx3\nlULKcK2Iv0bO0RNnovtqX+yFQSLe5YouhOV3vqJOXTD0OAufExBeQ9P3uGoVIVhT\nPsl5XwYhhoGyJH6x2kMbe+LW5mS/cGcs28bLxPrJnDBCBkOhOtjN1LY62bU6YUl8\nmJQVbMv/1wKBgB4OynEMQVA3lSjrb86A8j37LjGZS3oNS0hnBgq68mGgXUJ3zVYV\naUIXzwGOVihKvFnKhnI6MnbCh3ukqr2/dNzTRWyeNkntFf/36dZc0wGFyzM4NTA2\nKx3FIWXdS9Y6Bc0uWukEHQKLLezA7YtGsPsdhSd3+xHiw1MCxGI5o9aRAoGAc7Qk\nwRnzz6TBUCzSWtru8HAgnDMJUhsB44OwjGb+8bhhY0NLVWuU0fi9VpZwb/RNCNd5\nkfnmMAv5epsoCqAveg4QM9Ff8WEwmMeN5Tol6Az4VLap4jqoDCb2yWzcV0DMEDJo\nsVPPbSMkv+yTne3phsU6VJGw65u+FQ6WfOHct3kCgYEAi0ebCTmy+LtDHd2sRMby\nbTHezRe9fA3Ko/YY2J0ewjUYof8Or83ixzcEDIaf3euPJY1lEgIbfjCBeqIEwfsz\n/7ztIVT3ssB09DI/wRaOC4BL/hZKnxqNotcxpCtadhYPXJvBMuvnBISkGAWWIByg\nKvZn1Xrzo6zbhgMPH/LAW7c=\n-----END PRIVATE KEY-----\n",
  "client_email": "bucket-account@sacred-entry-351920.iam.gserviceaccount.com",
  "client_id": "106844703592294248488",
  "auth_uri": "https://accounts.google.com/o/oauth2/auth",
  "token_uri": "https://oauth2.googleapis.com/token",
  "auth_provider_x509_cert_url": "https://www.googleapis.com/oauth2/v1/certs",
  "client_x509_cert_url": "https://www.googleapis.com/robot/v1/metadata/x509/bucket-account%40sacred-entry-351920.iam.gserviceaccount.com"
}
